^C:\USERS\POWIE\DOCUMENTS\VISUAL STUDIO 2015\PROJECTS\ASTAR\ASTAR\MAIN.CPP
/c /I"C:\USERS\POWIE\DOCUMENTS\VSSTUFF\SFML-2.3.2\INCLUDE" /Zi /nologo /W3 /WX- /sdl /O2 /Oi /Oy- /GL /D _MBCS /Gm- /EHsc /MD /GS /Gy /fp:precise /Zc:wchar_t /Zc:forScope /Zc:inline /Fo"RELEASE\\" /Fd"RELEASE\VC140.PDB" /Gd /TP /analyze- C:\USERS\POWIE\DOCUMENTS\VISUAL STUDIO 2015\PROJECTS\ASTAR\ASTAR\MAIN.CPP
^C:\USERS\POWIE\DOCUMENTS\VISUAL STUDIO 2015\PROJECTS\ASTAR\ASTAR\TILE.CPP
/c /I"C:\USERS\POWIE\DOCUMENTS\VSSTUFF\SFML-2.3.2\INCLUDE" /Zi /nologo /W3 /WX- /sdl /O2 /Oi /Oy- /GL /D _MBCS /Gm- /EHsc /MD /GS /Gy /fp:precise /Zc:wchar_t /Zc:forScope /Zc:inline /Fo"RELEASE\\" /Fd"RELEASE\VC140.PDB" /Gd /TP /analyze- C:\USERS\POWIE\DOCUMENTS\VISUAL STUDIO 2015\PROJECTS\ASTAR\ASTAR\TILE.CPP
^C:\USERS\POWIE\DOCUMENTS\VISUAL STUDIO 2015\PROJECTS\ASTAR\ASTAR\MAP.CPP
/c /I"C:\USERS\POWIE\DOCUMENTS\VSSTUFF\SFML-2.3.2\INCLUDE" /Zi /nologo /W3 /WX- /sdl /O2 /Oi /Oy- /GL /D _MBCS /Gm- /EHsc /MD /GS /Gy /fp:precise /Zc:wchar_t /Zc:forScope /Zc:inline /Fo"RELEASE\\" /Fd"RELEASE\VC140.PDB" /Gd /TP /analyze- C:\USERS\POWIE\DOCUMENTS\VISUAL STUDIO 2015\PROJECTS\ASTAR\ASTAR\MAP.CPP
